
===============================================

    Support Ticket

===============================================

Name: Tim

Email: 

Summary: Test Problem 2

===============================================

Ticket Information

===============================================



